ln: failed to access ‘/usr/local/openssh/etc/sshd_config’: No such file or directory
Note: Forwarding request to 'systemctl disable sshd.service'.
Removed symlink /etc/systemd/system/multi-user.target.wants/sshd.service.
background.sh: line 8: /root/.ssh/known_hosts: No such file or directory
Note: Forwarding request to 'systemctl enable sshd.service'.
Created symlink from /etc/systemd/system/multi-user.target.wants/sshd.service to /usr/lib/systemd/system/sshd.service.
/bin/cp: cannot stat ‘/usr/local/openssh/sbin/sshd’: No such file or directory
/bin/cp: cannot stat ‘/usr/local/openssh/bin/*’: No such file or directory
/bin/cp: cannot stat ‘/usr/local/openssh/bin/ssh-keygen’: No such file or directory
/bin/cp: cannot stat ‘/usr/local/openssh/bin/scp’: No such file or directory
/bin/cp: cannot stat ‘/usr/local/openssh/etc/ssh_host_ecdsa_key.pub’: No such file or directory
Job for sshd.service failed because the control process exited with error code. See "systemctl status sshd.service" and "journalctl -xe" for details.
/usr/local/openssh/etc/sshd_config: No such file or directory
/usr/local/openssh/etc/sshd_config: No such file or directory
Note: Forwarding request to 'systemctl disable sshd.service'.
Removed symlink /etc/systemd/system/multi-user.target.wants/sshd.service.
background.sh: line 8: /root/.ssh/known_hosts: No such file or directory
Note: Forwarding request to 'systemctl enable sshd.service'.
Created symlink from /etc/systemd/system/multi-user.target.wants/sshd.service to /usr/lib/systemd/system/sshd.service.
/bin/cp: cannot create regular file ‘/usr/bin/ssh-agent’: Text file busy
Note: Forwarding request to 'systemctl disable sshd.service'.
Removed symlink /etc/systemd/system/multi-user.target.wants/sshd.service.
background.sh: line 8: /root/.ssh/known_hosts: No such file or directory
Note: Forwarding request to 'systemctl enable sshd.service'.
Created symlink from /etc/systemd/system/multi-user.target.wants/sshd.service to /usr/lib/systemd/system/sshd.service.
/usr/sbin/sshd: error while loading shared libraries: libcrypto.so.1.1: cannot open shared object file: No such file or directory
sshd: error while loading shared libraries: libcrypto.so.1.1: cannot open shared object file: No such file or directory
LD_LIBRARY_PATH variable already exists in /etc/environment.
Note: Forwarding request to 'systemctl disable sshd.service'.
Removed symlink /etc/systemd/system/multi-user.target.wants/sshd.service.
background.sh: line 22: /root/.ssh/known_hosts: No such file or directory
Note: Forwarding request to 'systemctl enable sshd.service'.
Created symlink from /etc/systemd/system/multi-user.target.wants/sshd.service to /usr/lib/systemd/system/sshd.service.
/usr/sbin/sshd: error while loading shared libraries: libcrypto.so.1.1: cannot open shared object file: No such file or directory
sshd: error while loading shared libraries: libcrypto.so.1.1: cannot open shared object file: No such file or directory
LD_LIBRARY_PATH variable already exists in /etc/environment.
Note: Forwarding request to 'systemctl disable sshd.service'.
Removed symlink /etc/systemd/system/multi-user.target.wants/sshd.service.
background.sh: line 25: /root/.ssh/known_hosts: No such file or directory
Note: Forwarding request to 'systemctl enable sshd.service'.
Created symlink from /etc/systemd/system/multi-user.target.wants/sshd.service to /usr/lib/systemd/system/sshd.service.
/bin/cp: cannot create regular file ‘/usr/bin/ssh-agent’: Text file busy
